{
	"components": [
		{
			"id": "wiz-text",
			"name": {
				"eng": "Text"
			},
			"model": {},
			"icon": "node_modules/wiz-text/icon.png"
		},
		{
			"id": "wiz-image",
			"name": {
				"eng": "Image"
			},
			"model": {},
			"icon": "node_modules/wiz-image/icon.png"
		},
		{
			"id": "wiz-title",
			"name": {
				"eng": "Title"
			},
			"model": {},
			"icon": "node_modules/wiz-title/icon.png"
		},
		{
			"id": "wiz-card",
			"name": {
				"eng": "Card"
			},
			"model": {},
			"icon": "node_modules/wiz-card/icon.png"
		},
		{
			"id": "wiz-button",
			"name": {
				"eng": "Button"
			},
			"model": {},
			"icon": "node_modules/wiz-button/icon.png"
		},
		{
			"id": "wiz-link",
			"name": {
				"eng": "Link"
			},
			"model": {},
			"icon": "node_modules/wiz-link/icon.png"
		},
		{
			"id": "wiz-video",
			"name": {
				"eng": "Video"
			},
			"model": {},
			"icon": "node_modules/wiz-video/icon.png"
		},
		{
			"id": "wiz-divider",
			"name": {
				"eng": "Divider"
			},
			"model": {},
			"icon": "node_modules/wiz-divider/icon.png"
		},
		{
			"id": "wiz-calendar",
			"name": {
				"eng": "Calendar"
			},
			"model": {},
			"icon": "node_modules/wiz-calendar/icon.png"
		}
	],
	"ignore": []
}